{
  "data": {
    "block": {
      "transactions": [
        {
          "from": {
            "address": "0xa94f5374fce5edbc8e2a8697c15331677e6ebf0b"
          },
          "to": {
            "address": "0x6295ee1b4f6dd65047762f924ecd367c17eabf8f"
          },
          "value": "0xa"
        }
      ]
    }
  }
}
